com/eoc/bpm/model/Sample.class
com/eoc/bpm/model/Person.class
com/eoc/bpm/model/PrescolabEvent.class
com/eoc/bpm/model/DoctorRequest.class
com/eoc/bpm/model/Model.class
com/eoc/bpm/model/Lab400Request.class
