/Users/jfgonguet/RHPAM/InstallOnLocal/workspace/rhpam-pilot/rhpam-pilot-model/src/main/java/com/eoc/bpm/model/Lab400Request.java
/Users/jfgonguet/RHPAM/InstallOnLocal/workspace/rhpam-pilot/rhpam-pilot-model/src/main/java/com/eoc/bpm/model/Model.java
/Users/jfgonguet/RHPAM/InstallOnLocal/workspace/rhpam-pilot/rhpam-pilot-model/src/main/java/com/eoc/bpm/model/PrescolabEvent.java
/Users/jfgonguet/RHPAM/InstallOnLocal/workspace/rhpam-pilot/rhpam-pilot-model/src/main/java/com/eoc/bpm/model/DoctorRequest.java
/Users/jfgonguet/RHPAM/InstallOnLocal/workspace/rhpam-pilot/rhpam-pilot-model/src/main/java/com/eoc/bpm/model/Person.java
/Users/jfgonguet/RHPAM/InstallOnLocal/workspace/rhpam-pilot/rhpam-pilot-model/src/main/java/com/eoc/bpm/model/Sample.java
